%YAML 1.1
%TAG !u! tag:unity3d.com,2011:
--- !u!78 &1
TagManager:
  serializedVersion: 2
  tags:
  - Playground
  - GlobalScript
  - UI
  - UIPause
  - UIGameOver
  - UIVictory
  - UIOptions
  - UIVolume
  - SafetyNet
  - WebLevelSelection_levelList
  - UILastVictory
  layers:
  - Default
  - TransparentFX
  - Ignore Raycast
  - 
  - Water
  - UI
  - 
  - 
  - PostProcessing
  - 
  - InHole
  - OnGround
  - 
  - 
  - 
  - 
  - 
  - 
  - 
  - 
  - 
  - 
  - 
  - 
  - 
  - 
  - 
  - 
  - 
  - 
  - 
  - 
  m_SortingLayers:
  - name: Default
    uniqueID: 0
    locked: 0
