1 1 1 1 1 1 1 1 1 1 1 1
1 0 0 0 D 0 0 0 0 0 0 1
1 0 0 0 0 0 D 0 0 0 X 1
1 0 D 1 1 1 1 1 1 1 1 1
1 0 0 0 0 1 0 0 0 0 0 1
1 0 0 0 0 1 0 0 0 0 0 1
1 1 1 0 0 1 0 D 1 0 0 1
1 D 0 0 0 1 0 0 1 0 0 1
1 0 0 0 D 1 0 0 1 0 0 1
1 1 1 0 0 0 0 0 1 0 0 1
1 1 1 0 0 0 0 0 1 0 S 1
1 1 1 1 1 1 1 1 1 1 1 1