1 1 1 1 1 1 1 1 1 1 1 1 1 1 1 1 1 1 1 1 1 1 1 1 1 1 1 1 1 1
1 D D D D D D D D D D D D D D D D D D D D D D D D D D D D 1
1 D D D D D D D D D D D D D D D D D D D D D D D D D D D D 1
1 D D D D D D D D D D 0 0 0 0 0 D D D D D D D D D D D D D 1
1 D D D D D D D D 0 0 0 0 0 0 0 0 0 D D D D D D D D D D D 1
1 D D D D D D D D 0 0 S 0 0 0 0 0 0 D D D D D D D D D D D 1
1 D D D D D D D 0 0 0 0 0 0 0 1 0 0 0 D D D D D D D D D D 1
1 D D D D D D D 0 0 0 0 0 0 0 0 0 0 0 D D D D D D D D D D 1
1 D D D D D D D 0 0 0 0 0 0 1 1 0 0 0 D D D D D D D D D D 1
1 D D D D D D D 0 0 0 0 1 0 0 0 0 0 0 D D D D D D D D D D 1
1 D D D D D D D 0 0 0 0 0 0 0 0 0 0 0 D D D D D D D D D D 1
1 D D D D D D D D 0 0 0 1 0 0 0 0 0 D D D D D D D D D D D 1
1 D D D D D D D D 0 0 0 0 0 0 0 0 0 D D D D D D D D D D D 1
1 D D D D D D 0 D D D 0 0 0 0 0 D D D D D D D D D D D D D 1
1 D D D D D D D D 0 D D D D D D D D D D D D D 0 0 1 0 0 D 1
1 D D D D D 0 D 0 D D D D D D D D D D D D D D 0 0 0 1 0 D 1
1 D D D D 0 D D D D D D D D 0 D D D D 0 D D D 0 0 0 0 0 D 1
1 D D D 0 1 0 0 0 0 0 D 0 D D D 0 0 0 D 0 D 0 1 0 0 0 D 1 1
1 D D 0 0 1 0 0 0 D 0 D 0 0 D 0 D D 1 0 D 0 0 0 0 0 0 0 D 1
1 D D D 0 0 0 D D D D 0 D D 0 1 D D 0 D 0 0 0 0 0 0 1 0 D 1
1 D D D D 0 D D D D D D D D D D D D D D D 0 0 0 0 X 0 0 D 1
1 1 1 1 1 1 1 1 1 1 1 1 1 1 1 1 1 1 1 1 1 1 1 1 1 1 1 1 1 1
