%YAML 1.1
%TAG !u! tag:unity3d.com,2011:
--- !u!162 &1
EditorUserSettings:
  m_ObjectHideFlags: 0
  serializedVersion: 4
  m_ConfigSettings:
    RecentlyUsedScenePath-0:
      value: 22424703114646680e0b0227036c6b1505032b292926237e38271427fb
      flags: 0
    RecentlyUsedScenePath-1:
      value: 22424703114646680e0b0227036c73150012147b623d28393930
      flags: 0
    RecentlyUsedScenePath-2:
      value: 22424703114646680e0b0227036c7a1e121019272966333e243d04
      flags: 0
    RecentlyUsedScenePath-3:
      value: 22424703114646680e0b0227036c7000021e17243f66333e243d04
      flags: 0
    RecentlyUsedScenePath-4:
      value: 22424703114646680e0b0227036c7b051b073726281b32252b2f5326ece92021
      flags: 0
    RecentlyUsedScenePath-5:
      value: 22424703114646680e0b0227036c6b0502180a232d2468252320092a
      flags: 0
    RecentlyUsedScenePath-6:
      value: 22424703114646680e0b0227036c6c151a121b3e252728132c240d32ebe73a76f7e93ffdfe
      flags: 0
    RecentlyUsedScenePath-7:
      value: 22424703114646680e0b0227036c73150012146439262f2434
      flags: 0
    RecentlyUsedScenePath-8:
      value: 22424703114646680e0b0227036c72151802563f22213229
      flags: 0
    RecentlyUsedScenePath-9:
      value: 22424703114646680e0b0227036c6c151a121b3e2527287e38271427fb
      flags: 0
    vcSharedLogLevel:
      value: 0d5e400f0650
      flags: 0
  m_VCAutomaticAdd: 1
  m_VCDebugCom: 0
  m_VCDebugCmd: 0
  m_VCDebugOut: 0
  m_SemanticMergeMode: 2
  m_VCShowFailedCheckout: 1
  m_VCOverwriteFailedCheckoutAssets: 1
  m_VCProjectOverlayIcons: 1
  m_VCHierarchyOverlayIcons: 1
  m_VCOtherOverlayIcons: 1
  m_VCAllowAsyncUpdate: 0
